^C:\USERS\JERRY\DOCUMENTS\VISUAL STUDIO 2013\PROJECTS\INVERSIONS\INVERSIONS\MERGE.CPP|C:\USERS\JERRY\DOCUMENTS\VISUAL STUDIO 2013\PROJECTS\INVERSIONS\INVERSIONS\SOURCE.CPP
C:\USERS\JERRY\DOCUMENTS\VISUAL STUDIO 2013\PROJECTS\INVERSIONS\INVERSIONS\DEBUG\VC120.PDB
C:\USERS\JERRY\DOCUMENTS\VISUAL STUDIO 2013\PROJECTS\INVERSIONS\INVERSIONS\DEBUG\VC120.IDB
C:\USERS\JERRY\DOCUMENTS\VISUAL STUDIO 2013\PROJECTS\INVERSIONS\INVERSIONS\DEBUG\MERGE.OBJ
C:\USERS\JERRY\DOCUMENTS\VISUAL STUDIO 2013\PROJECTS\INVERSIONS\INVERSIONS\DEBUG\SOURCE.OBJ
^C:\USERS\JERRY\DOCUMENTS\VISUAL STUDIO 2013\PROJECTS\INVERSIONS\INVERSIONS\MERGE.CPP
C:\USERS\JERRY\DOCUMENTS\VISUAL STUDIO 2013\PROJECTS\INVERSIONS\INVERSIONS\DEBUG\VC120.PDB
C:\USERS\JERRY\DOCUMENTS\VISUAL STUDIO 2013\PROJECTS\INVERSIONS\INVERSIONS\DEBUG\VC120.IDB
C:\USERS\JERRY\DOCUMENTS\VISUAL STUDIO 2013\PROJECTS\INVERSIONS\INVERSIONS\DEBUG\MERGE.OBJ
^C:\USERS\JERRY\DOCUMENTS\VISUAL STUDIO 2013\PROJECTS\INVERSIONS\INVERSIONS\SOURCE.CPP
C:\USERS\JERRY\DOCUMENTS\VISUAL STUDIO 2013\PROJECTS\INVERSIONS\INVERSIONS\DEBUG\VC120.PDB
C:\USERS\JERRY\DOCUMENTS\VISUAL STUDIO 2013\PROJECTS\INVERSIONS\INVERSIONS\DEBUG\VC120.IDB
C:\USERS\JERRY\DOCUMENTS\VISUAL STUDIO 2013\PROJECTS\INVERSIONS\INVERSIONS\DEBUG\SOURCE.OBJ
